[
{
  "model": "mywebsite_home.websitesettingsscripts",
  "pk": 1,
  "fields": {
    "name": "Custom Style",
    "content_type": "stylesheet/css",
    "body": "/*--------------------------------------------------------------\r\n *  Copyright (C) 2018 dsoft-app-dev.de and friends.\r\n *\r\n *  This Program may be used by anyone in accordance with the terms of the\r\n *  German Free Software License\r\n *\r\n *  The License may be obtained under http://www.d-fsl.org.\r\n *-------------------------------------------------------------*/\r\n\r\n/* Project colors\r\n-----------------\r\n\r\n1st: Black #121212\r\n2nd: Blue #9cdcf7\r\n3rd: Orange #ce9178\r\n\r\nAdditional:\r\n\r\nGreen #b5cea8\r\nDark Grey #2d2d2d\r\nLight Grey #787878\r\n\r\n*/\r\n\r\nbody {\r\n  /* Margin bottom between content and footer */\r\n  font-family: Roboto, sans-serif;\r\n  background-color: #ffffff;\r\n  color: #000000;\r\n}\r\n\r\n.separator {\r\n  padding: 20px;\r\n}\r\n\r\na {\r\n  font-family: Roboto, sans-serif;\r\n  color: #000000;\r\n  text-decoration: underline;\r\n}\r\n\r\na:hover {\r\n  color: #555555;\r\n  text-decoration: underline;\r\n}\r\n\r\n#sitename a {\r\n  color: #ffffff;\r\n  text-transform: uppercase;\r\n}\r\n\r\n#sitename a:hover {\r\n  color: #888888;\r\n}\r\n\r\n#sitename a img {\r\n  width: 120px;\r\n  height: 69px;\r\n  margin-top: -15px;\r\n}\r\n\r\nh1 {\r\n  font-family: Roboto, sans-serif;\r\n  color: #252525;\r\n}\r\n\r\nh2 {\r\n  font-family: Roboto, sans-serif;\r\n  color: #252525;\r\n}\r\n\r\nh3 {\r\n  font-family: Roboto, sans-serif;\r\n  color: #252525;\r\n}\r\n\r\nh4,\r\nh5,\r\nh6 {\r\n  font-family: PT Sans, sans-serif;\r\n  color: #252525;\r\n}\r\n\r\n#navigation ul.menu li a {\r\n  font-family: Roboto, sans-serif !important;\r\n}\r\n\r\n#navigation ul.menu li a {\r\n  color: #787878 !important;\r\n}\r\n\r\n#navigation ul.menu li a:hover {\r\n  color: #888888 !important;\r\n}\r\n\r\n#navigation ul.menu ul li a {\r\n  color: #888888 !important;\r\n}\r\n\r\ndiv#navigation > ul#menu.menu > li.current.active > a {\r\n  color: #ffffff !important;\r\n}\r\n\r\n.lang-button-de {\r\n  background: url('/static/mywebsite/img/default/flag_DE.png') no-repeat;\r\n  margin: 0px 10px 0px 10px;\r\n  padding: 12px 10px 6px 12px;\r\n}\r\n\r\n.lang-button-en {\r\n  background: url('/static/mywebsite/img/default/flag_EN.png') no-repeat;\r\n  margin: 0px 10px 0px 10px;\r\n  padding: 12px 10px 6px 12px;\r\n}\r\n\r\n.fb_share_button,\r\n.print_button,\r\n.email_button {\r\n  /* for more icons see https://simplesharebuttons.com/html-share-buttons */\r\n  width: 45px;\r\n  padding: 5px;\r\n  border: 0;\r\n  box-shadow: 0;\r\n  cursor: pointer;\r\n}\r\n\r\n#content {\r\n  margin: 0 auto;\r\n  max-width: 90%;\r\n  margin-top: 35px;\r\n  padding: 25px 15px;\r\n}\r\n\r\nfigure {\r\n  padding: 5px;\r\n}\r\n\r\nfigure.image {\r\n  display: inline-block;\r\n  margin: 0 2px 0 1px;\r\n  background: #f5f2f0;\r\n  /* border: 1px solid #000;\r\n    border-radius: 3px 3px 0 0; */\r\n}\r\n\r\nfigure.align-right {\r\n  float: right;\r\n}\r\n\r\nfigure.align-lefg {\r\n  float: left;\r\n}\r\n\r\nfigure.image figcaption {\r\n  /* background-color: #838383;\r\n  color: white; */\r\n  font-style: italic;\r\n  border-radius: 0 0 3px 3px;\r\n  margin: 6px 8px 6px 8px;\r\n  text-align: center;\r\n}\r\n\r\n.btn {\r\n  border: none;\r\n  padding: 10px;\r\n  margin: 20px 0;\r\n  border-radius: 0;\r\n  height: auto;\r\n  width: auto;\r\n  font-size: 13px;\r\n  font-weight: bold;\r\n  text-transform: uppercase;\r\n  text-decoration: none;\r\n  vertical-align: top;\r\n  line-height: 25px;\r\n}\r\n\r\n.btn-dark {\r\n  background: #262626;\r\n}\r\n\r\n.otp_is_disabled:before {\r\n  content: 'DISABLED';\r\n  z-index: 1;\r\n  color: #fff;\r\n  font-size: 11px;\r\n  background: red;\r\n  border: solid 1px darkred;\r\n  padding: 2px;\r\n  zoom: 1;\r\n  filter: alpha(opacity=80);\r\n  opacity: 0.7;\r\n  -webkit-text-shadow: 0 0 2px red;\r\n  text-shadow: 0 0 2px red;\r\n  box-shadow: 0 0 2px red;\r\n}\r\n\r\n.otp_is_enabled:before {\r\n  content: 'ENABLED';\r\n  z-index: 1;\r\n  color: #fff;\r\n  font-size: 11px;\r\n  background: green;\r\n  border: solid 1px darkgreen;\r\n  padding: 2px;\r\n  zoom: 1;\r\n  filter: alpha(opacity=80);\r\n  opacity: 0.7;\r\n  -webkit-text-shadow: 0 0 2px green;\r\n  text-shadow: 0 0 2px green;\r\n  box-shadow: 0 0 2px green;\r\n}\r\n\r\n.form_errors {\r\n  color: #dc3545;\r\n}\r\n\r\n.form_messages {\r\n  color: #000000;\r\n}\r\n\r\n.nav-item > a.nav-link {\r\n  text-decoration: none !important;\r\n}\r\n\r\n.tab-content {\r\n  min-height: 300px;\r\n}\r\n\r\n#block-bottomcontent {\r\n  border-bottom: none !important;\r\n}\r\n\r\n#block-bottomcontent .container_12 {\r\n  text-align: left;\r\n}\r\n\r\n#block-bottomcontent .custom {\r\n  text-align: justify !important;\r\n  padding: 10px !important;\r\n  font-size: 10pt !important;\r\n}\r\n\r\n/* Popup without JavaScript. Used for NoScript */\r\n\r\n.overlay {\r\n  position: fixed;\r\n  top: 0;\r\n  bottom: 0;\r\n  left: 0;\r\n  right: 0;\r\n  background: rgba(0, 0, 0, 0.7);\r\n  transition: opacity 500ms;\r\n  z-index: 99998;\r\n}\r\n\r\n.overlay:target {\r\n  visibility: hidden;\r\n  opacity: 0;\r\n}\r\n\r\n.popup {\r\n  margin: 70px auto;\r\n  padding: 20px;\r\n  background: #fff;\r\n  border-radius: 5px;\r\n  width: 30%;\r\n  position: relative;\r\n  transition: all 5s ease-in-out;\r\n  z-index: 99999;\r\n}\r\n\r\n.popup h2 {\r\n  margin-top: 0;\r\n  color: #333;\r\n  font-family: Tahoma, Arial, sans-serif;\r\n}\r\n\r\n.popup .close {\r\n  position: absolute;\r\n  top: 20px;\r\n  right: 30px;\r\n  transition: all 200ms;\r\n  font-size: 30px;\r\n  font-weight: bold;\r\n  text-decoration: none;\r\n  color: #333;\r\n}\r\n\r\n.popup .close:hover {\r\n  color: #252525;\r\n}\r\n\r\n.popup .content {\r\n  max-height: 30%;\r\n  overflow: auto;\r\n}\r\n\r\n.cookie-buttons {\r\n  display: block;\r\n  height: 40px;\r\n  line-height: 25px;\r\n  text-transform: uppercase;\r\n  color: #fff;\r\n  font: inherit;\r\n  font-size: 13px;\r\n  font-weight: bold;\r\n  -webkit-transition: background-color 0.2s;\r\n  -moz-transition: background-color 0.2s;\r\n  transition: background-color 0.2s;\r\n}\r\n\r\n.cookie-buttons > .btn-dark {\r\n  padding: 10px !important;\r\n  background: #262626 !important;\r\n}\r\n\r\n.cookie-buttons > .btn-grey {\r\n  float: left;\r\n  width: 50%;\r\n}\r\n\r\ndiv.members > form > * > input {\r\n  display: block !important;\r\n}\r\n\r\n/* Extra small devices (portrait phones, less than 576px) */\r\n\r\n@media (max-width: 575.98px) {\r\n  .popup {\r\n    width: 70%;\r\n  }\r\n\r\n  .images-parallax {\r\n    background-image: url('/static/mywebsite/img/banners/CodeBanner_medres.png');\r\n    background-repeat: repeat;\r\n    background-position: 100% 30px;\r\n  }\r\n\r\n  .content-p {\r\n    padding: 40px 0;\r\n  }\r\n\r\n  .images-parallax {\r\n    height: 100px;\r\n  }\r\n\r\n  #content {\r\n    margin: 0 auto;\r\n    max-width: 95%;\r\n  }\r\n\r\n  div.content-text img {\r\n    position: relative;\r\n    float: none !important;\r\n    margin-left: 0px !important;\r\n    margin-right: 0px !important;\r\n    top: 50%;\r\n    left: 50%;\r\n    -webkit-transform: translate(-50%, 0%);\r\n    transform: translate(-50%, 0%);\r\n  }\r\n\r\n  .carousel-slider {\r\n    background-image: url('/static/mywebsite/img/banners/CodeBanner_medres.png');\r\n    height: 360px;\r\n  }\r\n\r\n  .carousel-slider .main {\r\n    padding: 10px 0;\r\n  }\r\n\r\n  .form-control {\r\n    width: 100% !important;\r\n  }\r\n}\r\n\r\n/* Small devices (landscape phones, 576px and up) */\r\n\r\n@media (min-width: 576px) and (max-width: 767.98px) {\r\n  .popup {\r\n    width: 70%;\r\n  }\r\n\r\n  .images-parallax {\r\n    background-image: url('/static/mywebsite/img/banners/CodeBanner_medres.png');\r\n    background-repeat: repeat;\r\n    background-position: 100% 30px;\r\n  }\r\n\r\n  .content-p {\r\n    padding: 40px 0;\r\n  }\r\n\r\n  #content {\r\n    margin: 0 auto;\r\n    max-width: 95%;\r\n  }\r\n\r\n  .carousel-slider {\r\n    background-image: url('/static/mywebsite/img/banners/CodeBanner_medres.png');\r\n    height: 550px;\r\n  }\r\n\r\n  /* re-size form fields and labels of django.contrib.auth.forms */\r\n  .form-control {\r\n    width: 100% !important;\r\n  }\r\n}\r\n\r\n/* Medium devices (tablets, 768px and up) */\r\n\r\n@media (min-width: 768px) and (max-width: 991.98px) {\r\n  .images-parallax {\r\n    background-image: url('/static/mywebsite/img/banners/CodeBanner_medres.png');\r\n    background-repeat: repeat;\r\n    background-position: 100% 30px;\r\n  }\r\n\r\n  .content-p {\r\n    padding: 40px 0;\r\n  }\r\n\r\n  .carousel-slider {\r\n    background-image: url('/static/mywebsite/img/banners/CodeBanner_medres.png');\r\n    height: 550px;\r\n  }\r\n\r\n  /* re-size form fields and labels of django.contrib.auth.forms */\r\n  .form-control {\r\n    max-width: 650px !important;\r\n  }\r\n}\r\n\r\n/* Large devices (desktops, 992px and up) */\r\n\r\n@media (min-width: 992px) and (max-width: 1199.98px) {\r\n  .images-parallax {\r\n    background-image: url('/static/mywebsite/img/banners/CodeBanner_medres.png');\r\n    background-repeat: repeat;\r\n    background-position: 100% 30px;\r\n  }\r\n\r\n  .carousel-slider {\r\n    background-image: url('/static/mywebsite/img/banners/CodeBanner_medres.png');\r\n    height: 550px;\r\n  }\r\n\r\n  /* re-size form fields and labels of django.contrib.auth.forms */\r\n  .form-control {\r\n    max-width: 650px !important;\r\n  }\r\n}\r\n\r\n/* Extra large devices (large desktops, 1200px and up) */\r\n\r\n@media (min-width: 1200px) {\r\n  .images-parallax {\r\n    background-image: url('/static/mywebsite/img/banners/CodeBanner_medres.png');\r\n    background-repeat: repeat;\r\n    background-position: 100% 30px;\r\n  }\r\n\r\n  .carousel-slider {\r\n    background-image: url('/static/mywebsite/img/banners/CodeBanner_medres.png');\r\n    height: 550px;\r\n  }\r\n\r\n  /* re-size form fields and labels of django.contrib.auth.forms */\r\n  .form-control {\r\n    max-width: 650px !important;\r\n  }\r\n}",
    "description": "Eigene Anpassung f\u00fcr Toods Template."
  }
}
]
