astroid==2.6.6
Django==3.1.13
django-admin-rangefilter==0.8.1
django-classy-tags==2.0.0
django-cookie-law==2.1.0
django-crispy-forms==1.12.0
django-crontab==0.7.1
django-dbbackup==3.3.0
django-etc==1.3.0
django-feedparser==0.2.1
django-filebrowser-no-grappelli==4.0.1
django-filter==2.4.0
django-good-otp@ https://bitbucket.org/chrda81/django-good-otp/get/1.2.2.tar.gz
django-hitcount==1.3.3
django-3-jet==1.0.8
django-maintenance-mode==0.16.0
django-mysql-utf8mb4==0.1.7
django-parler==2.2
django-ranged-response==0.2.0
django-related-admin==1.0.1
django-reversion==4.0.0
django-reversion-compare==0.14.1
django-simple-captcha==0.5.14
django-simple-menu==1.2.1
django-split-settings==1.1.0
django-storages==1.11.1
django-tinymce==3.4.0
django-webpack-loader==1.5.0
django-widget-tweaks==1.4.8
docutils==0.17.1
dropbox==11.17.0
envparse==0.2.0
feedparser==6.0.8
Jinja2==3.0.1
jsmin==3.0.0
jsonfield==3.1.0
lazy-object-proxy==1.6.0
lxml==4.6.3
MarkupSafe==2.0.1
mccabe==0.6.1
numpy==1.21.2
packaging==21.0
pandas==1.3.2
pathlib2==2.3.6
Pillow==8.3.1
PyMySQL==1.0.2
pyotp==2.6.0
python-dateutil==2.8.2
python-memcached==1.59
pytz==2021.1
qrcode==7.3
scikit-learn==0.24.2
scipy==1.7.1
six==1.16.0
sklearn==0.0
sqlparse==0.4.1
wheel==0.37.0
wrapt==1.12.1
